{
    "name": "gilded-rose-python",
    "image": "mcr.microsoft.com/devcontainers/base:ubuntu", // Any generic, debian-based image
    "features": { // https://github.com/devcontainers/features
        "ghcr.io/devcontainers/features/python:1": {}
    },
    "customizations": {
        "vscode": {
            "settings": {
                "python.testing.pytestArgs": [
                    "tests"
                ],
                "python.testing.unittestEnabled": false,
                "python.testing.pytestEnabled": true,
                "python.defaultInterpreterPath": "${workspaceFolder}/.venv"
            },
            "extensions": []
        }
    },
    "postCreateCommand": "pipx install poetry && poetry config virtualenvs.in-project true && poetry install && poetry run python -m pytest"
}